{
 "actions": [],
 "allow_rename": 1,
 "autoname": "field:excel_meeting_room",
 "creation": "2023-12-31 01:19:49.083374",
 "default_view": "List",
 "doctype": "DocType",
 "editable_grid": 1,
 "engine": "InnoDB",
 "field_order": [
  "excel_company",
  "excel_branch",
  "excel_meeting_room",
  "capacity",
  "amenities",
  "location",
  "column_break_bsfu5",
  "picture"
 ],
 "fields": [
  {
   "fieldname": "excel_company",
   "fieldtype": "Link",
   "label": "Company",
   "options": "Company"
  },
  {
   "fieldname": "excel_branch",
   "fieldtype": "Link",
   "in_list_view": 1,
   "in_standard_filter": 1,
   "label": "Branch",
   "options": "Excel Branch"
  },
  {
   "fieldname": "excel_meeting_room",
   "fieldtype": "Data",
   "label": "Meeting Room Name",
   "unique": 1
  },
  {
   "fieldname": "capacity",
   "fieldtype": "Data",
   "in_list_view": 1,
   "label": "Capacity"
  },
  {
   "fieldname": "amenities",
   "fieldtype": "Table MultiSelect",
   "label": "Amenities",
   "options": "Amenities Table"
  },
  {
   "fieldname": "location",
   "fieldtype": "Data",
   "label": "Address"
  },
  {
   "fieldname": "picture",
   "fieldtype": "Attach Image",
   "label": "Picture "
  },
  {
   "fieldname": "column_break_bsfu5",
   "fieldtype": "Column Break"
  }
 ],
 "index_web_pages_for_search": 1,
 "links": [],
 "modified": "2024-06-22 15:13:01.906131",
 "modified_by": "Administrator",
 "module": "Excel Meeting Booking",
 "name": "Excel Meeting Room",
 "naming_rule": "By fieldname",
 "owner": "Administrator",
 "permissions": [
  {
   "create": 1,
   "delete": 1,
   "email": 1,
   "export": 1,
   "print": 1,
   "read": 1,
   "report": 1,
   "role": "System Manager",
   "share": 1,
   "write": 1
  }
 ],
 "show_title_field_in_link": 1,
 "sort_field": "modified",
 "sort_order": "DESC",
 "states": [],
 "title_field": "excel_meeting_room"
}